<?xml version="1.0" encoding="utf-8"?>
<!-- Generator: Adobe Illustrator 26.5.0, SVG Export Plug-In . SVG Version: 6.00 Build 0)  -->
<svg version="1.1" id="Layer_1" xmlns="http://www.w3.org/2000/svg" xmlns:xlink="http://www.w3.org/1999/xlink" x="0px" y="0px"
	 viewBox="0 0 2014 470" style="enable-background:new 0 0 2014 470;" xml:space="preserve">
<title>Listaflow</title>
<style type="text/css">
	.st0{fill:#020C1B;}
	.st1{fill:#64FFDA;}
	.st2{fill:#FFFFFF;}
</style>
<g>
	<g>
		<circle class="st0" cx="235.8" cy="235" r="235"/>
		<path class="st1" d="M458,158.4c-3.9-0.7-7.8-1-11.9-1c-5.2,0-10.6,0.6-15.9,1.8c-31.6,7-53.8,34.8-53.8,67.6V270
			c-0.1,19.4-16.1,35.2-35.7,35.3c-19.7,0-35.7-16-35.7-35.7v-41.4v-0.9c-0.4-7.8-1.3-14.2-2.8-19.6c-8.1-29.6-35.2-50.3-66.1-50.3
			c-5.2,0-10.6,0.6-15.9,1.8c-31.6,7-53.8,34.8-53.8,67.6V270c-0.1,19.4-16.1,35.2-35.6,35.3c-19.7,0-35.7-16.1-35.7-35.7v-41.4
			v-0.9c-0.4-7.8-1.3-14.2-2.8-19.6c-8.1-29.6-35.2-50.3-66.1-50.3c-4.2,0-8.5,0.4-12.7,1.2c-4.3,12.6-7.6,25.8-9.8,39.3
			c4-3,8.6-5.2,13.8-6.4c2.9-0.7,5.9-1,8.7-1c15.9,0,30,10.7,34.1,25.9c0.8,3,1.4,7.1,1.7,12.2v40.9c0,37.9,30.9,68.7,68.8,68.8
			c37.7-0.1,68.6-30.7,68.7-68.3v-43.2c0-17.2,11.5-31.8,27.9-35.4c2.9-0.7,5.9-1,8.7-1c15.9,0,30,10.7,34.1,25.9
			c0.8,3,1.4,7.1,1.7,12.2v40.9c0,37.9,30.9,68.8,68.8,68.8c37.7-0.1,68.6-30.7,68.7-68.3v-43.2c0-17.2,11.5-31.8,27.9-35.4
			c2.9-0.7,5.9-1,8.7-1c8.1,0,15.6,2.7,21.7,7.4C465.7,184.3,462.4,171.1,458,158.4z"/>
	</g>
	<path class="st2" d="M673.4,327.8c-8.6-8.1-12.8-19.7-12.8-34.6v-142h39.3v139.7c0,5.7,1.5,10.1,4.4,13.2s7.1,4.7,12.5,4.7
		c2,0,4.1-0.3,6.2-0.8c2.1-0.5,3.7-1.1,4.9-1.8l1.8,30.4c-6.5,2.2-13.3,3.3-20.4,3.3C693.9,340,682,335.9,673.4,327.8z M775.3,172.9
		c-4-3.7-6-8.3-6-13.7c0-5.5,2-10,6-13.7s9.2-5.5,15.5-5.5c6.4,0,11.5,1.8,15.5,5.3s6,8,6,13.3c0,5.8-2,10.5-6,14.3
		s-9.2,5.7-15.5,5.7C784.4,178.5,779.2,176.6,775.3,172.9z M771.1,202.6h39.3V338h-39.3V202.6z M881.7,335.8
		c-10.7-2.8-19.3-6.2-25.7-10.4l13.1-28.2c6,3.9,13.3,7,21.9,9.4c8.6,2.4,16.9,3.6,25.2,3.6c16.6,0,24.9-4.1,24.9-12.3
		c0-3.9-2.3-6.6-6.8-8.3c-4.5-1.7-11.5-3.1-20.9-4.3c-11.1-1.7-20.2-3.6-27.4-5.8c-7.2-2.2-13.5-6-18.7-11.6
		c-5.3-5.5-7.9-13.4-7.9-23.7c0-8.6,2.5-16.1,7.4-22.8c4.9-6.6,12.2-11.8,21.6-15.5c9.5-3.7,20.7-5.5,33.6-5.5
		c9.6,0,19.1,1,28.6,3.1s17.3,5,23.5,8.7L961,240.1c-11.9-6.7-24.9-10.1-39-10.1c-8.4,0-14.7,1.2-18.9,3.5c-4.2,2.4-6.3,5.4-6.3,9.1
		c0,4.2,2.3,7.1,6.8,8.8s11.7,3.3,21.6,4.8c11.1,1.8,20.1,3.8,27.2,5.9c7,2.1,13.2,5.9,18.4,11.5c5.2,5.5,7.8,13.3,7.8,23.1
		c0,8.4-2.5,15.9-7.6,22.4c-5,6.5-12.4,11.6-22,15.2s-21.1,5.4-34.3,5.4C903.4,340,892.4,338.6,881.7,335.8z M1106.5,331.4
		c-3.9,2.9-8.6,5-14.2,6.4s-11.5,2.1-17.5,2.1c-16.3,0-28.8-4.1-37.5-12.3c-8.7-8.2-13.1-20.3-13.1-36.2V172.6h39.3v33h33.5v30.2
		h-33.5v55.1c0,5.7,1.4,10.1,4.3,13.2s7,4.7,12.3,4.7c6,0,11.4-1.7,16.1-5L1106.5,331.4z M1278.7,202.6V338h-37.5v-15.6
		c-9.7,11.7-23.8,17.6-42.3,17.6c-12.7,0-24.3-2.9-34.6-8.6c-10.3-5.7-18.4-13.8-24.3-24.4s-8.8-22.8-8.8-36.7
		c0-13.9,2.9-26.2,8.8-36.7c5.9-10.6,14-18.7,24.3-24.4s21.8-8.6,34.6-8.6c17.3,0,30.8,5.5,40.5,16.4v-14.3L1278.7,202.6
		L1278.7,202.6z M1230.4,297.6c6.5-6.8,9.8-15.9,9.8-27.3s-3.3-20.5-9.8-27.3s-14.8-10.2-24.7-10.2c-10.1,0-18.4,3.4-24.9,10.2
		s-9.8,15.9-9.8,27.3s3.3,20.5,9.8,27.3s14.8,10.2,24.9,10.2C1215.6,307.8,1223.9,304.4,1230.4,297.6z M1370.1,205.6h34.7v30.2
		h-33.7V338h-39.3V199.5c0-15.4,4.6-27.7,13.7-36.7c9.1-9.1,22-13.6,38.6-13.6c5.9,0,11.5,0.6,16.7,1.9c5.3,1.3,9.7,3.1,13.2,5.4
		l-10.3,28.4c-4.5-3.2-9.8-4.8-15.9-4.8c-11.9,0-17.9,6.5-17.9,19.6v5.9L1370.1,205.6L1370.1,205.6z M1469.4,327.8
		c-8.6-8.1-12.8-19.7-12.8-34.6v-142h39.3v139.7c0,5.7,1.5,10.1,4.4,13.2s7.1,4.7,12.5,4.7c2,0,4.1-0.3,6.2-0.8s3.7-1.1,4.9-1.8
		l1.8,30.4c-6.5,2.2-13.3,3.3-20.4,3.3C1489.9,340,1478,335.9,1469.4,327.8z M1585.3,331c-11.3-6-20.2-14.2-26.5-24.8
		c-6.4-10.6-9.6-22.6-9.6-36s3.2-25.4,9.6-36s15.2-18.8,26.5-24.8s24.1-8.9,38.4-8.9s27,3,38.2,8.9c11.2,6,20,14.2,26.4,24.8
		s9.6,22.6,9.6,36s-3.2,25.4-9.6,36s-15.2,18.8-26.4,24.8c-11.2,6-24,8.9-38.2,8.9C1609.5,340,1596.7,337,1585.3,331z M1648.5,297.6
		c6.5-6.8,9.7-15.9,9.7-27.3s-3.2-20.5-9.7-27.3s-14.7-10.2-24.8-10.2s-18.4,3.4-24.9,10.2s-9.8,15.9-9.8,27.3s3.3,20.5,9.8,27.3
		s14.8,10.2,24.9,10.2S1642,304.4,1648.5,297.6z M1814.2,254.5v29.6c0,7.9-5,14.3-12.5,16c-1.4,0.3-2.8,0.5-4.2,0.5
		c-7.1,0-13.4-4.7-15.2-11.5c-0.2-0.8-0.6-2.7-0.8-6.4v-27.8v-8.4c0-15.1-4.5-26.7-13.1-35c-8.6-8.2-20.7-12.3-36.1-12.3
		c-2.1,0-4.1,0.1-6.1,0.3v31.3c4.7,0.3,8.4,1.8,11,4.6c3,3.1,4.6,7.6,4.6,13.3v6.1v28.4v1.1c0.3,5.9,1,10.9,2.2,15.2
		c6.5,24,28.5,40.7,53.5,40.7c4.2,0,8.5-0.5,12.7-1.4c25.6-5.7,43.5-28.1,43.6-54.7v-29.6c0-8.7,7.2-15.7,15.9-15.7
		c8.7,0,15.9,7.1,15.9,15.7v29.6c0.1,26.6,18,49,43.6,54.7c4.2,0.9,8.5,1.4,12.7,1.4c24.9,0,46.9-16.8,53.5-40.7
		c1.2-4.3,1.9-9.2,2.2-15.2v-1.1v-28.4v-6.1c0-5.8,1.6-10.2,4.6-13.3c2.7-2.8,6.4-4.4,11-4.6v-31.3c-2-0.2-4-0.3-6.1-0.3
		c-15.4,0-27.5,4.1-36.1,12.3s-13.1,19.9-13.1,35v8.4v27.8c-0.2,3.7-0.6,5.6-0.8,6.4c-1.9,6.8-8.1,11.5-15.2,11.5
		c-1.3,0-2.7-0.2-4.2-0.5c-7.4-1.6-12.5-8.1-12.5-16v-29.6c-0.1-30.5-25.1-55.3-55.6-55.3C1839.3,199.3,1814.4,224.1,1814.2,254.5z"
		/>
</g>
</svg>
