<?xml version="1.0" encoding="utf-8"?>
<!-- Generator: Adobe Illustrator 26.2.1, SVG Export Plug-In . SVG Version: 6.00 Build 0)  -->
<svg version="1.1" id="Layer_1" xmlns="http://www.w3.org/2000/svg" xmlns:xlink="http://www.w3.org/1999/xlink" x="0px" y="0px"
	 viewBox="0 0 512 512" style="enable-background:new 0 0 512 512;" xml:space="preserve">
<style type="text/css">
	.st0{fill:none;}
</style>
<rect x="-2896.2" y="-3516" class="st0" width="15645.1" height="14202.8"/>
<path d="M63.5,209.5c0-81.7,66.4-148.1,148.1-148.1s148.1,66.4,148.1,148.1s-66.4,148.1-148.1,148.1
	C129.9,357.6,63.5,291.2,63.5,209.5z M506.5,457.9L381.2,332.5c25.1-34.6,40-77.1,40-123C421.2,93.8,326.9-0.3,211.1,0
	C96.2,0.3,2.3,94.1,2.1,209c-0.3,115.8,93.8,210,209.5,210c43.8,0,84.5-13.5,118.2-36.6l126.1,126.1c4.6,4.6,12,4.6,16.5,0
	l34.1-34.1C511.1,469.9,511.1,462.4,506.5,457.9z"/>
</svg>
